[
    {
        "pk": 1,
        "model": "sitetree.tree",
        "fields": {
            "alias": "main",
            "title": "PyCon 2015"
        }
    },
    {
        "pk": 1,
        "model": "sitetree.treeitem",
        "fields": {
            "parent": null,
            "access_restricted": false,
            "access_permissions": [],
            "description": "",
            "insitetree": true,
            "hint": "",
            "url": "#",
            "inbreadcrumbs": true,
            "title": "About",
            "tree": 1,
            "access_perm_type": 1,
            "alias": null,
            "sort_order": 1,
            "inmenu": true,
            "access_loggedin": false,
            "hidden": false,
            "urlaspattern": false
        }
    },
    {
        "pk": 10,
        "model": "sitetree.treeitem",
        "fields": {
            "parent": 2,
            "access_restricted": false,
            "access_permissions": [],
            "description": "",
            "insitetree": true,
            "hint": "",
            "url": "cms_page \"venue/santa-clara/\"",
            "inbreadcrumbs": true,
            "title": "Explore Santa Clara",
            "tree": 1,
            "access_perm_type": 1,
            "alias": null,
            "sort_order": 10,
            "inmenu": true,
            "access_loggedin": false,
            "hidden": false,
            "urlaspattern": true
        }
    },
    {
        "pk": 14,
        "model": "sitetree.treeitem",
        "fields": {
            "parent": 2,
            "access_restricted": false,
            "access_permissions": [],
            "description": "",
            "insitetree": true,
            "hint": "",
            "url": "cms_page \"venue/directions/\"",
            "inbreadcrumbs": true,
            "title": "Directions to the Venue",
            "tree": 1,
            "access_perm_type": 1,
            "alias": null,
            "sort_order": 14,
            "inmenu": true,
            "access_loggedin": false,
            "hidden": false,
            "urlaspattern": true
        }
    },
    {
        "pk": 15,
        "model": "sitetree.treeitem",
        "fields": {
            "parent": 2,
            "access_restricted": false,
            "access_permissions": [],
            "description": "",
            "insitetree": true,
            "hint": "",
            "url": "cms_page \"venue/info/\"",
            "inbreadcrumbs": true,
            "title": "Venue Information",
            "tree": 1,
            "access_perm_type": 1,
            "alias": null,
            "sort_order": 15,
            "inmenu": true,
            "access_loggedin": false,
            "hidden": false,
            "urlaspattern": true
        }
    },
    {
        "pk": 18,
        "model": "sitetree.treeitem",
        "fields": {
            "parent": 3,
            "access_restricted": false,
            "access_permissions": [],
            "description": "",
            "insitetree": true,
            "hint": "",
            "url": "cms_page \"sponsors/exhibitfloor/\"",
            "inbreadcrumbs": true,
            "title": "Exhibit Floor Information",
            "tree": 1,
            "access_perm_type": 1,
            "alias": null,
            "sort_order": 18,
            "inmenu": true,
            "access_loggedin": false,
            "hidden": false,
            "urlaspattern": true
        }
    },
    {
        "pk": 19,
        "model": "sitetree.treeitem",
        "fields": {
            "parent": null,
            "access_restricted": false,
            "access_permissions": [],
            "description": "",
            "insitetree": true,
            "hint": "",
            "url": "#",
            "inbreadcrumbs": true,
            "title": "Speaking",
            "tree": 1,
            "access_perm_type": 1,
            "alias": null,
            "sort_order": 2,
            "inmenu": true,
            "access_loggedin": false,
            "hidden": false,
            "urlaspattern": false
        }
    },
    {
        "pk": 2,
        "model": "sitetree.treeitem",
        "fields": {
            "parent": null,
            "access_restricted": false,
            "access_permissions": [],
            "description": "",
            "insitetree": true,
            "hint": "",
            "url": "/venue/",
            "inbreadcrumbs": true,
            "title": "Venue",
            "tree": 1,
            "access_perm_type": 1,
            "alias": null,
            "sort_order": 19,
            "inmenu": true,
            "access_loggedin": false,
            "hidden": false,
            "urlaspattern": false
        }
    },
    {
        "pk": 3,
        "model": "sitetree.treeitem",
        "fields": {
            "parent": null,
            "access_restricted": false,
            "access_permissions": [],
            "description": "",
            "insitetree": true,
            "hint": "",
            "url": "#",
            "inbreadcrumbs": true,
            "title": "Sponsors",
            "tree": 1,
            "access_perm_type": 1,
            "alias": null,
            "sort_order": 3,
            "inmenu": true,
            "access_loggedin": false,
            "hidden": false,
            "urlaspattern": false
        }
    },
    {
        "pk": 20,
        "model": "sitetree.treeitem",
        "fields": {
            "parent": 19,
            "access_restricted": false,
            "access_permissions": [],
            "description": "",
            "insitetree": true,
            "hint": "",
            "url": "cms_page \"speaking/cfp/\"",
            "inbreadcrumbs": true,
            "title": "Call For Proposals",
            "tree": 1,
            "access_perm_type": 1,
            "alias": null,
            "sort_order": 20,
            "inmenu": true,
            "access_loggedin": false,
            "hidden": false,
            "urlaspattern": true
        }
    },
    {
        "pk": 7,
        "model": "sitetree.treeitem",
        "fields": {
            "parent": 1,
            "access_restricted": false,
            "access_permissions": [],
            "description": "",
            "insitetree": true,
            "hint": "",
            "url": "cms_page \"about/volunteers/\"",
            "inbreadcrumbs": true,
            "title": "Volunteers",
            "tree": 1,
            "access_perm_type": 1,
            "alias": null,
            "sort_order": 8,
            "inmenu": true,
            "access_loggedin": false,
            "hidden": false,
            "urlaspattern": true
        }
    },
    {
        "pk": 6,
        "model": "sitetree.treeitem",
        "fields": {
            "parent": 1,
            "access_restricted": false,
            "access_permissions": [],
            "description": "",
            "insitetree": true,
            "hint": "",
            "url": "http://guidebook.com/g/pycon2012/",
            "inbreadcrumbs": true,
            "title": "PyCon Mobile Guide",
            "tree": 1,
            "access_perm_type": 1,
            "alias": null,
            "sort_order": 7,
            "inmenu": true,
            "access_loggedin": false,
            "hidden": true,
            "urlaspattern": false
        }
    },
    {
        "pk": 5,
        "model": "sitetree.treeitem",
        "fields": {
            "parent": 1,
            "access_restricted": false,
            "access_permissions": [],
            "description": "",
            "insitetree": true,
            "hint": "",
            "url": "cms_page \"about/diversity/\"",
            "inbreadcrumbs": true,
            "title": "Diversity",
            "tree": 1,
            "access_perm_type": 1,
            "alias": null,
            "sort_order": 6,
            "inmenu": true,
            "access_loggedin": false,
            "hidden": false,
            "urlaspattern": true
        }
    },
    {
        "pk": 8,
        "model": "sitetree.treeitem",
        "fields": {
            "parent": 1,
            "access_restricted": false,
            "access_permissions": [],
            "description": "",
            "insitetree": true,
            "hint": "",
            "url": "cms_page \"about/what-is-pycon/\"",
            "inbreadcrumbs": true,
            "title": "What is PyCon?",
            "tree": 1,
            "access_perm_type": 1,
            "alias": null,
            "sort_order": 4,
            "inmenu": true,
            "access_loggedin": false,
            "hidden": false,
            "urlaspattern": true
        }
    },
    {
        "pk": 4,
        "model": "sitetree.treeitem",
        "fields": {
            "parent": 1,
            "access_restricted": false,
            "access_permissions": [],
            "description": "",
            "insitetree": true,
            "hint": "",
            "url": "cms_page \"about/code-of-conduct/\"",
            "inbreadcrumbs": true,
            "title": "Code of Conduct",
            "tree": 1,
            "access_perm_type": 1,
            "alias": null,
            "sort_order": 5,
            "inmenu": true,
            "access_loggedin": false,
            "hidden": false,
            "urlaspattern": true
        }
    },
    {
        "pk": 21,
        "model": "sitetree.treeitem",
        "fields": {
            "parent": null,
            "access_restricted": false,
            "access_permissions": [],
            "description": "",
            "insitetree": true,
            "hint": "",
            "url": "http://pycon.blogspot.com/",
            "inbreadcrumbs": true,
            "title": "Blog/News",
            "tree": 1,
            "access_perm_type": 1,
            "alias": null,
            "sort_order": 21,
            "inmenu": true,
            "access_loggedin": false,
            "hidden": false,
            "urlaspattern": false
        }
    },
    {
        "pk": 23,
        "model": "sitetree.treeitem",
        "fields": {
            "parent": 19,
            "access_restricted": false,
            "access_permissions": [],
            "description": "",
            "insitetree": true,
            "hint": "",
            "url": "cms_page \"posters/\"",
            "inbreadcrumbs": true,
            "title": "Poster Session",
            "tree": 1,
            "access_perm_type": 1,
            "alias": null,
            "sort_order": 23,
            "inmenu": true,
            "access_loggedin": false,
            "hidden": false,
            "urlaspattern": true
        }
    },
    {
        "pk": 17,
        "model": "sitetree.treeitem",
        "fields": {
            "parent": 3,
            "access_restricted": false,
            "access_permissions": [],
            "description": "",
            "insitetree": true,
            "hint": "",
            "url": "cms_page \"sponsors/prospectus/\"",
            "inbreadcrumbs": true,
            "title": "Prospectus",
            "tree": 1,
            "access_perm_type": 1,
            "alias": null,
            "sort_order": 12,
            "inmenu": true,
            "access_loggedin": false,
            "hidden": false,
            "urlaspattern": true
        }
    },
    {
        "pk": 11,
        "model": "sitetree.treeitem",
        "fields": {
            "parent": 3,
            "access_restricted": false,
            "access_permissions": [],
            "description": "",
            "insitetree": true,
            "hint": "",
            "url": "sponsor_apply",
            "inbreadcrumbs": true,
            "title": "Apply to be a Sponsor",
            "tree": 1,
            "access_perm_type": 1,
            "alias": null,
            "sort_order": 17,
            "inmenu": true,
            "access_loggedin": false,
            "hidden": false,
            "urlaspattern": true
        }
    },
    {
        "pk": 16,
        "model": "sitetree.treeitem",
        "fields": {
            "parent": 1,
            "access_restricted": false,
            "access_permissions": [],
            "description": "",
            "insitetree": true,
            "hint": "",
            "url": "http://guidebook.com/g/pycon2015/",
            "inbreadcrumbs": true,
            "title": "PyCon Mobile Guide",
            "tree": 1,
            "access_perm_type": 1,
            "alias": null,
            "sort_order": 22,
            "inmenu": true,
            "access_loggedin": false,
            "hidden": true,
            "urlaspattern": false
        }
    },
    {
        "pk": 13,
        "model": "sitetree.treeitem",
        "fields": {
            "parent": 1,
            "access_restricted": false,
            "access_permissions": [],
            "description": "",
            "insitetree": true,
            "hint": "",
            "url": "sitemap",
            "inbreadcrumbs": true,
            "title": "Sitemap",
            "tree": 1,
            "access_perm_type": 1,
            "alias": null,
            "sort_order": 16,
            "inmenu": true,
            "access_loggedin": false,
            "hidden": false,
            "urlaspattern": true
        }
    },
    {
        "pk": 22,
        "model": "sitetree.treeitem",
        "fields": {
            "parent": 1,
            "access_restricted": false,
            "access_permissions": [],
            "description": "",
            "insitetree": true,
            "hint": "",
            "url": "cms_page \"about/press/\"",
            "inbreadcrumbs": true,
            "title": "Press",
            "tree": 1,
            "access_perm_type": 1,
            "alias": null,
            "sort_order": 9,
            "inmenu": true,
            "access_loggedin": false,
            "hidden": false,
            "urlaspattern": true
        }
    },
    {
        "pk": 9,
        "model": "sitetree.treeitem",
        "fields": {
            "parent": 1,
            "access_restricted": false,
            "access_permissions": [],
            "description": "",
            "insitetree": true,
            "hint": "",
            "url": "https://pycon.disqus.com/",
            "inbreadcrumbs": true,
            "title": "Join the Conversation",
            "tree": 1,
            "access_perm_type": 1,
            "alias": null,
            "sort_order": 13,
            "inmenu": true,
            "access_loggedin": false,
            "hidden": true,
            "urlaspattern": false
        }
    },
    {
        "pk": 12,
        "model": "sitetree.treeitem",
        "fields": {
            "parent": 3,
            "access_restricted": false,
            "access_permissions": [],
            "description": "",
            "insitetree": true,
            "hint": "",
            "url": "sponsor_list",
            "inbreadcrumbs": true,
            "title": "PyCon Sponsors",
            "tree": 1,
            "access_perm_type": 1,
            "alias": null,
            "sort_order": 11,
            "inmenu": true,
            "access_loggedin": false,
            "hidden": false,
            "urlaspattern": true
        }
    }
]
